^C:\USERS\ANHTU\DOCUMENTS\VISUAL STUDIO 2017\PROJECTS\СКАЧИВАНИЯ ФАЙЛ HTML ПО ССЫЛКЕ\DOWNLOAD_HTML\SOURCE.CPP
C:\USERS\ANHTU\DOCUMENTS\VISUAL STUDIO 2017\PROJECTS\Скачивания файл HTML по ссылке\DOWNLOAD_HTML\X64\DEBUG\VC141.PDB
C:\USERS\ANHTU\DOCUMENTS\VISUAL STUDIO 2017\PROJECTS\Скачивания файл HTML по ссылке\DOWNLOAD_HTML\X64\DEBUG\VC141.IDB
C:\USERS\ANHTU\DOCUMENTS\VISUAL STUDIO 2017\PROJECTS\Скачивания файл HTML по ссылке\DOWNLOAD_HTML\X64\DEBUG\SOURCE.OBJ
